^E:\PROJECT\KEYAUTH-IMGUI-EXAMPLE\IMGUI\IMGUI.CPP|E:\PROJECT\KEYAUTH-IMGUI-EXAMPLE\IMGUI\IMGUI_DEMO.CPP|E:\PROJECT\KEYAUTH-IMGUI-EXAMPLE\IMGUI\IMGUI_DRAW.CPP|E:\PROJECT\KEYAUTH-IMGUI-EXAMPLE\IMGUI\IMGUI_IMPL_DX9.CPP|E:\PROJECT\KEYAUTH-IMGUI-EXAMPLE\IMGUI\IMGUI_IMPL_WIN32.CPP|E:\PROJECT\KEYAUTH-IMGUI-EXAMPLE\IMGUI\IMGUI_TABLES.CPP|E:\PROJECT\KEYAUTH-IMGUI-EXAMPLE\IMGUI\IMGUI_WIDGETS.CPP|E:\PROJECT\KEYAUTH-IMGUI-EXAMPLE\MAIN.CPP
E:\PROJECT\KEYAUTH-IMGUI-EXAMPLE\X64\DEBUG\VC143.PDB
E:\PROJECT\KEYAUTH-IMGUI-EXAMPLE\X64\DEBUG\VC143.IDB
E:\PROJECT\KEYAUTH-IMGUI-EXAMPLE\X64\DEBUG\IMGUI_WIDGETS.OBJ
E:\PROJECT\KEYAUTH-IMGUI-EXAMPLE\X64\DEBUG\IMGUI_TABLES.OBJ
E:\PROJECT\KEYAUTH-IMGUI-EXAMPLE\X64\DEBUG\IMGUI_IMPL_WIN32.OBJ
E:\PROJECT\KEYAUTH-IMGUI-EXAMPLE\X64\DEBUG\IMGUI_IMPL_DX9.OBJ
E:\PROJECT\KEYAUTH-IMGUI-EXAMPLE\X64\DEBUG\IMGUI_DRAW.OBJ
E:\PROJECT\KEYAUTH-IMGUI-EXAMPLE\X64\DEBUG\IMGUI_DEMO.OBJ
E:\PROJECT\KEYAUTH-IMGUI-EXAMPLE\X64\DEBUG\IMGUI.OBJ
^E:\PROJECT\KEYAUTH-IMGUI-EXAMPLE\IMGUI\IMGUI.CPP
E:\PROJECT\KEYAUTH-IMGUI-EXAMPLE\X64\DEBUG\IMGUI.OBJ
^E:\PROJECT\KEYAUTH-IMGUI-EXAMPLE\IMGUI\IMGUI_DEMO.CPP
E:\PROJECT\KEYAUTH-IMGUI-EXAMPLE\X64\DEBUG\IMGUI_DEMO.OBJ
^E:\PROJECT\KEYAUTH-IMGUI-EXAMPLE\IMGUI\IMGUI_DRAW.CPP
E:\PROJECT\KEYAUTH-IMGUI-EXAMPLE\X64\DEBUG\IMGUI_DRAW.OBJ
^E:\PROJECT\KEYAUTH-IMGUI-EXAMPLE\IMGUI\IMGUI_IMPL_DX9.CPP
E:\PROJECT\KEYAUTH-IMGUI-EXAMPLE\X64\DEBUG\IMGUI_IMPL_DX9.OBJ
^E:\PROJECT\KEYAUTH-IMGUI-EXAMPLE\IMGUI\IMGUI_IMPL_WIN32.CPP
E:\PROJECT\KEYAUTH-IMGUI-EXAMPLE\X64\DEBUG\IMGUI_IMPL_WIN32.OBJ
^E:\PROJECT\KEYAUTH-IMGUI-EXAMPLE\IMGUI\IMGUI_TABLES.CPP
E:\PROJECT\KEYAUTH-IMGUI-EXAMPLE\X64\DEBUG\IMGUI_TABLES.OBJ
^E:\PROJECT\KEYAUTH-IMGUI-EXAMPLE\IMGUI\IMGUI_WIDGETS.CPP
E:\PROJECT\KEYAUTH-IMGUI-EXAMPLE\X64\DEBUG\IMGUI_WIDGETS.OBJ
